Ethereum Price Prediction
…
Wow, that’s much better! Based on this, the obvious long term strategy is to buy and hold (remember, that y-axis is the log base 10, so 4 really means $10,000). But is there any reason to believe we could do better?

Short-Term Strategy: If up, Buy, else Sell

This strategy should sound like it’s a stark contrast to the conventional wisdom of “Buy low, sell High.” However, it’s slightly more nuanced than that. The general assumption is that down days will tend to follow down days, and likewise with up days. First, is this actually true?

prices %>%
  mutate(
    yesterday = dplyr::lag(y),
    dayBefore = dplyr::lag(y, n = 2)
  ) %>%
  filter(!is.na(dayBefore)) %>%
  mutate(buy = ifelse(yesterday > dayBefore, 1, -1))

## # A tibble: 817 x 5
##            ds         y yesterday dayBefore   buy
##        <date>     <dbl>     <dbl>     <dbl> <dbl>
##  1 2015-07-31 0.0000000 0.0000000 0.0000000    -1
##  2 2015-08-01 0.0000000 0.0000000 0.0000000    -1
##  3 2015-08-02 0.0000000 0.0000000 0.0000000    -1
##  4 2015-08-03 0.0000000 0.0000000 0.0000000    -1
##  5 2015-08-04 0.0000000 0.0000000 0.0000000    -1
##  6 2015-08-05 0.0000000 0.0000000 0.0000000    -1
##  7 2015-08-06 0.6020600 0.0000000 0.0000000    -1
##  8 2015-08-07 0.3424227 0.6020600 0.0000000     1
##  9 2015-08-08 0.3424227 0.3424227 0.6020600    -1
## 10 2015-08-09 0.0000000 0.3424227 0.3424227    -1
## # ... with 807 more rows
…
